{
    "asset" : {
        "generator" : "Khronos glTF Blender I/O v1.0.4",
        "version" : "2.0"
    },
    "scene" : 0,
    "scenes" : [
        {
            "name" : "Scene",
            "nodes" : [
                0,
                1,
                2,
                3,
                4,
                5,
                6,
                7,
                8,
                9
            ]
        }
    ],
    "nodes" : [
        {
            "mesh" : 0,
            "name" : "CUP",
            "rotation" : [
                0,
                0.07027505338191986,
                0,
                0.9975276589393616
            ],
            "scale" : [
                1.4255650043487549,
                0.7996067404747009,
                1.3479976654052734
            ],
            "translation" : [
                0,
                0.05486734211444855,
                0
            ]
        },
        {
            "mesh" : 1,
            "name" : "Circle",
            "scale" : [
                0.6304296255111694,
                0.6304296255111694,
                0.6304296255111694
            ],
            "translation" : [
                0.0007340768352150917,
                0.06840769201517105,
                0.04035155847668648
            ]
        },
        {
            "name" : "Light",
            "rotation" : [
                0.16907575726509094,
                0.7558803558349609,
                -0.27217137813568115,
                0.570947527885437
            ],
            "scale" : [
                -1.093855381011963,
                1.1000332832336426,
                1.353973388671875
            ],
            "translation" : [
                -0.7676268815994263,
                2.634793519973755,
                -1.2996642589569092
            ]
        },
        {
            "name" : "Camera",
            "rotation" : [
                0.5177192091941833,
                -0.0037933087442070246,
                0.0022955541498959064,
                0.855539083480835
            ],
            "translation" : [
                -0.01058615930378437,
                0.46324604749679565,
                0.7979494333267212
            ]
        },
        {
            "mesh" : 2,
            "name" : "Plane",
            "translation" : [
                0.01775505766272545,
                -0.0003352909698151052,
                0.0007418108289130032
            ]
        },
        {
            "mesh" : 3,
            "name" : "Sprinkle_long",
            "translation" : [
                0.2586723268032074,
                0.003599710064008832,
                0
            ]
        },
        {
            "mesh" : 4,
            "name" : "Sprinkle_short",
            "translation" : [
                0.26699110865592957,
                0.0014314136933535337,
                -5.412039899965748e-05
            ]
        },
        {
            "mesh" : 5,
            "name" : "Sprinkle_long.001",
            "translation" : [
                0.26264244318008423,
                0.00228216708637774,
                4.489463026402518e-05
            ]
        },
        {
            "mesh" : 6,
            "name" : "Sprinkle_long.002",
            "translation" : [
                0.27056393027305603,
                0.002137556439265609,
                4.489413549890742e-05
            ]
        },
        {
            "mesh" : 7,
            "name" : "Sphere",
            "scale" : [
                2.997833251953125,
                2.997833251953125,
                2.997833251953125
            ],
            "translation" : [
                0.24220550060272217,
                0.0026913152541965246,
                -0.0005385857075452805
            ]
        }
    ],
    "materials" : [
        {
            "doubleSided" : true,
            "name" : "Material.005",
            "pbrMetallicRoughness" : {
                "baseColorFactor" : [
                    0.800000011920929,
                    0.800000011920929,
                    0.800000011920929,
                    1
                ],
                "metallicFactor" : 0,
                "roughnessFactor" : 0
            }
        },
        {
            "doubleSided" : true,
            "name" : "Glass",
            "pbrMetallicRoughness" : {
                "baseColorFactor" : [
                    0.8000000715255737,
                    0.3351910412311554,
                    0.5365687012672424,
                    1
                ],
                "metallicFactor" : 0,
                "roughnessFactor" : 0.3636363744735718
            }
        },
        {
            "doubleSided" : true,
            "name" : "Material.003",
            "pbrMetallicRoughness" : {
                "metallicFactor" : 0,
                "roughnessFactor" : 0.5
            }
        },
        {
            "doubleSided" : true,
            "name" : "Material.004",
            "pbrMetallicRoughness" : {
                "baseColorFactor" : [
                    0.12056349217891693,
                    0.6857790946960449,
                    0.8000000715255737,
                    1
                ],
                "metallicFactor" : 0,
                "roughnessFactor" : 0.3055555522441864
            }
        }
    ],
    "meshes" : [
        {
            "name" : "Cylinder",
            "primitives" : [
                {
                    "attributes" : {
                        "POSITION" : 0,
                        "NORMAL" : 1,
                        "TEXCOORD_0" : 2
                    },
                    "indices" : 3,
                    "material" : 0
                }
            ]
        },
        {
            "name" : "Circle",
            "primitives" : [
                {
                    "attributes" : {
                        "POSITION" : 4,
                        "NORMAL" : 5,
                        "TEXCOORD_0" : 6
                    },
                    "indices" : 7,
                    "material" : 0
                }
            ]
        },
        {
            "name" : "Plane",
            "primitives" : [
                {
                    "attributes" : {
                        "POSITION" : 8,
                        "NORMAL" : 9,
                        "TEXCOORD_0" : 10
                    },
                    "indices" : 11,
                    "material" : 1
                }
            ]
        },
        {
            "name" : "Sphere",
            "primitives" : [
                {
                    "attributes" : {
                        "POSITION" : 12,
                        "NORMAL" : 13,
                        "TEXCOORD_0" : 14
                    },
                    "indices" : 15,
                    "material" : 2
                }
            ]
        },
        {
            "name" : "Sphere.001",
            "primitives" : [
                {
                    "attributes" : {
                        "POSITION" : 16,
                        "NORMAL" : 17,
                        "TEXCOORD_0" : 18
                    },
                    "indices" : 19,
                    "material" : 2
                }
            ]
        },
        {
            "name" : "Sphere.003",
            "primitives" : [
                {
                    "attributes" : {
                        "POSITION" : 20,
                        "NORMAL" : 21,
                        "TEXCOORD_0" : 22
                    },
                    "indices" : 23,
                    "material" : 2
                }
            ]
        },
        {
            "name" : "Sphere.004",
            "primitives" : [
                {
                    "attributes" : {
                        "POSITION" : 24,
                        "NORMAL" : 25,
                        "TEXCOORD_0" : 26
                    },
                    "indices" : 27,
                    "material" : 2
                }
            ]
        },
        {
            "name" : "Sphere.006",
            "primitives" : [
                {
                    "attributes" : {
                        "POSITION" : 28,
                        "NORMAL" : 29,
                        "TEXCOORD_0" : 30
                    },
                    "indices" : 31,
                    "material" : 3
                }
            ]
        }
    ],
    "accessors" : [
        {
            "bufferView" : 0,
            "componentType" : 5126,
            "count" : 884,
            "max" : [
                0.08391457051038742,
                0.06504351645708084,
                0.05089813098311424
            ],
            "min" : [
                -0.044559650123119354,
                -0.06374141573905945,
                -0.0493105947971344
            ],
            "type" : "VEC3"
        },
        {
            "bufferView" : 1,
            "componentType" : 5126,
            "count" : 884,
            "type" : "VEC3"
        },
        {
            "bufferView" : 2,
            "componentType" : 5126,
            "count" : 884,
            "type" : "VEC2"
        },
        {
            "bufferView" : 3,
            "componentType" : 5123,
            "count" : 4716,
            "type" : "SCALAR"
        },
        {
            "bufferView" : 4,
            "componentType" : 5126,
            "count" : 248,
            "max" : [
                0.17931166291236877,
                -0.07250051945447922,
                0.11670565605163574
            ],
            "min" : [
                -0.18329164385795593,
                -0.10809101164340973,
                -0.24589765071868896
            ],
            "type" : "VEC3"
        },
        {
            "bufferView" : 5,
            "componentType" : 5126,
            "count" : 248,
            "type" : "VEC3"
        },
        {
            "bufferView" : 6,
            "componentType" : 5126,
            "count" : 248,
            "type" : "VEC2"
        },
        {
            "bufferView" : 7,
            "componentType" : 5123,
            "count" : 1380,
            "type" : "SCALAR"
        },
        {
            "bufferView" : 8,
            "componentType" : 5126,
            "count" : 4,
            "max" : [
                1,
                0,
                1
            ],
            "min" : [
                -1,
                0,
                -1
            ],
            "type" : "VEC3"
        },
        {
            "bufferView" : 9,
            "componentType" : 5126,
            "count" : 4,
            "type" : "VEC3"
        },
        {
            "bufferView" : 10,
            "componentType" : 5126,
            "count" : 4,
            "type" : "VEC2"
        },
        {
            "bufferView" : 11,
            "componentType" : 5123,
            "count" : 6,
            "type" : "SCALAR"
        },
        {
            "bufferView" : 12,
            "componentType" : 5126,
            "count" : 160,
            "max" : [
                0.0012728894362226129,
                0.003440313506871462,
                0.0009999998146668077
            ],
            "min" : [
                -0.0013415112625807524,
                -0.004305116832256317,
                -0.0009999996982514858
            ],
            "type" : "VEC3"
        },
        {
            "bufferView" : 13,
            "componentType" : 5126,
            "count" : 160,
            "type" : "VEC3"
        },
        {
            "bufferView" : 14,
            "componentType" : 5126,
            "count" : 160,
            "type" : "VEC2"
        },
        {
            "bufferView" : 15,
            "componentType" : 5123,
            "count" : 612,
            "type" : "SCALAR"
        },
        {
            "bufferView" : 16,
            "componentType" : 5126,
            "count" : 115,
            "max" : [
                0.0009999998146668077,
                0.0016265036538243294,
                0.0009999998146668077
            ],
            "min" : [
                -0.0009999998146668077,
                -0.00213682372123003,
                -0.0009999996982514858
            ],
            "type" : "VEC3"
        },
        {
            "bufferView" : 17,
            "componentType" : 5126,
            "count" : 115,
            "type" : "VEC3"
        },
        {
            "bufferView" : 18,
            "componentType" : 5126,
            "count" : 115,
            "type" : "VEC2"
        },
        {
            "bufferView" : 19,
            "componentType" : 5123,
            "count" : 468,
            "type" : "SCALAR"
        },
        {
            "bufferView" : 20,
            "componentType" : 5126,
            "count" : 115,
            "max" : [
                0.0009999998146668077,
                0.0024010560009628534,
                0.0009999998146668077
            ],
            "min" : [
                -0.0009999998146668077,
                -0.0031905616633594036,
                -0.0009999996982514858
            ],
            "type" : "VEC3"
        },
        {
            "bufferView" : 21,
            "componentType" : 5126,
            "count" : 115,
            "type" : "VEC3"
        },
        {
            "bufferView" : 22,
            "componentType" : 5126,
            "count" : 115,
            "type" : "VEC2"
        },
        {
            "bufferView" : 23,
            "componentType" : 5123,
            "count" : 468,
            "type" : "SCALAR"
        },
        {
            "bufferView" : 24,
            "componentType" : 5126,
            "count" : 201,
            "max" : [
                0.0019719970878213644,
                0.0024797881487756968,
                0.0009999996982514858
            ],
            "min" : [
                -0.0020688287913799286,
                -0.00304595148190856,
                -0.0009999998146668077
            ],
            "type" : "VEC3"
        },
        {
            "bufferView" : 25,
            "componentType" : 5126,
            "count" : 201,
            "type" : "VEC3"
        },
        {
            "bufferView" : 26,
            "componentType" : 5126,
            "count" : 201,
            "type" : "VEC2"
        },
        {
            "bufferView" : 27,
            "componentType" : 5123,
            "count" : 612,
            "type" : "SCALAR"
        },
        {
            "bufferView" : 28,
            "componentType" : 5126,
            "count" : 151,
            "max" : [
                0.0009999998146668077,
                0.0010000000474974513,
                0.0009999996982514858
            ],
            "min" : [
                -0.0009999998146668077,
                -0.0010000000474974513,
                -0.0010000000474974513
            ],
            "type" : "VEC3"
        },
        {
            "bufferView" : 29,
            "componentType" : 5126,
            "count" : 151,
            "type" : "VEC3"
        },
        {
            "bufferView" : 30,
            "componentType" : 5126,
            "count" : 151,
            "type" : "VEC2"
        },
        {
            "bufferView" : 31,
            "componentType" : 5123,
            "count" : 672,
            "type" : "SCALAR"
        }
    ],
    "bufferViews" : [
        {
            "buffer" : 0,
            "byteLength" : 10608,
            "byteOffset" : 0
        },
        {
            "buffer" : 0,
            "byteLength" : 10608,
            "byteOffset" : 10608
        },
        {
            "buffer" : 0,
            "byteLength" : 7072,
            "byteOffset" : 21216
        },
        {
            "buffer" : 0,
            "byteLength" : 9432,
            "byteOffset" : 28288
        },
        {
            "buffer" : 0,
            "byteLength" : 2976,
            "byteOffset" : 37720
        },
        {
            "buffer" : 0,
            "byteLength" : 2976,
            "byteOffset" : 40696
        },
        {
            "buffer" : 0,
            "byteLength" : 1984,
            "byteOffset" : 43672
        },
        {
            "buffer" : 0,
            "byteLength" : 2760,
            "byteOffset" : 45656
        },
        {
            "buffer" : 0,
            "byteLength" : 48,
            "byteOffset" : 48416
        },
        {
            "buffer" : 0,
            "byteLength" : 48,
            "byteOffset" : 48464
        },
        {
            "buffer" : 0,
            "byteLength" : 32,
            "byteOffset" : 48512
        },
        {
            "buffer" : 0,
            "byteLength" : 12,
            "byteOffset" : 48544
        },
        {
            "buffer" : 0,
            "byteLength" : 1920,
            "byteOffset" : 48556
        },
        {
            "buffer" : 0,
            "byteLength" : 1920,
            "byteOffset" : 50476
        },
        {
            "buffer" : 0,
            "byteLength" : 1280,
            "byteOffset" : 52396
        },
        {
            "buffer" : 0,
            "byteLength" : 1224,
            "byteOffset" : 53676
        },
        {
            "buffer" : 0,
            "byteLength" : 1380,
            "byteOffset" : 54900
        },
        {
            "buffer" : 0,
            "byteLength" : 1380,
            "byteOffset" : 56280
        },
        {
            "buffer" : 0,
            "byteLength" : 920,
            "byteOffset" : 57660
        },
        {
            "buffer" : 0,
            "byteLength" : 936,
            "byteOffset" : 58580
        },
        {
            "buffer" : 0,
            "byteLength" : 1380,
            "byteOffset" : 59516
        },
        {
            "buffer" : 0,
            "byteLength" : 1380,
            "byteOffset" : 60896
        },
        {
            "buffer" : 0,
            "byteLength" : 920,
            "byteOffset" : 62276
        },
        {
            "buffer" : 0,
            "byteLength" : 936,
            "byteOffset" : 63196
        },
        {
            "buffer" : 0,
            "byteLength" : 2412,
            "byteOffset" : 64132
        },
        {
            "buffer" : 0,
            "byteLength" : 2412,
            "byteOffset" : 66544
        },
        {
            "buffer" : 0,
            "byteLength" : 1608,
            "byteOffset" : 68956
        },
        {
            "buffer" : 0,
            "byteLength" : 1224,
            "byteOffset" : 70564
        },
        {
            "buffer" : 0,
            "byteLength" : 1812,
            "byteOffset" : 71788
        },
        {
            "buffer" : 0,
            "byteLength" : 1812,
            "byteOffset" : 73600
        },
        {
            "buffer" : 0,
            "byteLength" : 1208,
            "byteOffset" : 75412
        },
        {
            "buffer" : 0,
            "byteLength" : 1344,
            "byteOffset" : 76620
        }
    ],
    "buffers" : [
        {
            "byteLength" : 77964,
            "uri" : "donut_cup1.bin"
        }
    ]
}
